[{
    "userId": 1,
    "id": 1,
    "title": "Do my clothes washing",
    "created_at": "Thu Nov 05 15:45:09 +0000 2015",
    "description": "Need to buy some washing powder first",
    "completed": true
}, {
    "userId": 1,
    "id": 2,
    "title": "Get some food shopping done",
    "description": "Need to buy some vegetables and fruit",
    "created_at": "Friday Oct 05 15:45:09 +0000 2015",
    "completed": true
}, {
    "userId": 1,
    "id": 3,
    "title": "Fix the tap in the bathroom",
    "created_at": "Fridy Nov 03 15:45:09 +0000 2015",
    "description": "Need to buy a washer first",
    "completed": false
}, {
    "userId": 1,
    "id": 4,
    "title": "Clean the house",
    "description": "Parents are round tomorrow ",
    "created_at": "Thursday Nov 05 15:45:09 +0000 2015",
    "completed": true
}, {
    "userId": 1,
    "id": 5,
    "title": "Buy wine",
    "description": "buy wine from shop for dinner tomorrow",
    "created_at": "Saturday Nov 05 15:45:09 +0000 2015",
    "description": " buy wine from shop for dinner tomorrow",
    "completed": false
}, {
    "userId": 1,
    "id": 6,
    "title": "Go to the gym",
    "created_at": "Monday Nov 01 15:45:09 +0000 2015",
    "description": "Do 2 hours after work",
    "completed": true
}, {
    "userId": 2,
    "id": 21,
    "title": "Set alarm clock",
    "description": "set alarm clock for next week",
    "created_at": "Tuesday Nov 05 15:45:09 +0000 2015",
    "description": "set alarm clock for next week",
    "completed": false
}, {
    "userId": 2,
    "id": 22,
    "title": "Send birthday card to brother",
    "description": "send birthday card to brother tomorrow",
    "created_at": "Saturday Oct 01 15:45:09 +0000 2015",
    "description": "send birthday card to brother tomorrow",
    "completed": false
}, {
    "userId": 2,
    "id": 23,
    "title": "Meet for drinks",
    "description": "Meet lizzy for drinks tomorrow at 7",
    "created_at": "Fridy Nov 05 15:45:09 +0000 2015",
    "description": " meet lizzy for drinks tomorrow at 7",
    "completed": true
}, {
    "userId": 2,
    "id": 24,
    "title": "Water the plants",
    "description": "water the plants",
    "created_at": "Fridy Nov 02 15:45:09 +0000 2015",
    "description": "water the plants",
    "completed": true
}, {
    "userId": 2,
    "id": 25,
    "title": "Buy a new toaster",
    "description": "buy toaster from amazon",
    "created_at": "Fridy Nov 05 15:45:09 +0000 2015",
    "description": "buy toaster from amazon",
    "completed": false
}, {
    "userId": 2,
    "id": 26,
    "title": "Birthday- sister",
    "description": " buy dvd box set  for sister ",
    "created_at": "Fridy Nov 05 15:45:09 +0000 2015",
    "description": "buy dvd box set  for sister",
    "completed": true
}, {
    "userId": 2,
    "id": 27,
    "title": "Buy cat food",
    "description": " buy cat food",
    "created_at": "Fridy Nov 05 15:45:09 +0000 2015",
    "description": " buy cat food",
    "completed": true
}, {
    "userId": 2,
    "id": 28,
    "title": "buy blanket",
    "description": "Buy blanket for sunday",
    "created_at": "Fridy Nov 05 15:45:09 +0000 2015",
    "description": "buy blanket for sunday",
    "completed": false
}, {
    "userId": 2,
    "id": 29,
    "title": "pin knick",
    "description": "Picnic on Sunday",
    "created_at": "Sunday Dec 09 15:45:09 +0000 2015",
    "description": "nibbles on Sunday",
    "completed": false
}, {
    "userId": 2,
    "title": "Get some food shopping done",
    "description": "Need to buy some vergatables and fruit",
    "created_at": "Fridy Nov 05 15:45:09 +0000 2015",
    "description": "Need to buy some vergatables and fruit",
    "completed": false
}, {
    "userId": 2,
    "id": 31,
    "title": "Buy stuff for bathroom",
    "description": "hand soap and paper",
    "created_at": "Fridy Nov 05 15:45:09 +0000 2015",
    "description": "hand soap and paper",
    "completed": true
}, {
    "userId": 3,
    "id": 41,
    "title": "Fix my bicycle",
    "description": "buy puncture repair kit",
    "created_at": "Fridy Nov 05 15:45:09 +0000 2015",
    "description": " buy puncture repair kit",
    "completed": true
}, {
    "userId": 3,
    "id": 42,
    "title": "Change tyre and fix",
    "description": "fix puncture",
    "created_at": "Fridy Nov 07 15:45:09 +0000 2015",
    "description": " fix puncture",
    "completed": false
}, {
    "userId": 3,
    "id": 43,
    "title": "Buy light bulb",
    "description": "living room",
    "created_at": "Fridy Nov 05 15:45:09 +0000 2015",
    "description": "living room",
    "completed": true
}, {
    "userId": 3,
    "id": 44,
    "title": "Fix light",
    "description": "replace light bulb",
    "created_at": "Fridy Nov 05 15:45:09 +0000 2015",
    "description": " replace light bulb",
    "completed": true
}, {
    "userId": 3,
    "id": 45,
    "title": "Go for run",
    "description": "go for a run at 8",
    "created_at": "Fridy Nov 05 15:45:09 +0000 2015",
    "description": "go for a run at 8",
    "completed": false
}, {
    "userId": 3,
    "title": "Go shopping",
    "description": "Need to buy some vergatables and fruit",
    "created_at": "Fridy Nov 05 15:45:09 +0000 2015",
    "description": "Need to buy some vergatables and fruit",
    "completed": false
}, {
    "userId": 3,
    "id": 47,
    "title": " Clean windows",
    "description": "clean windows - bedroom",
    "created_at": "Fridy Nov 05 15:45:09 +0000 2015",
    "description": "clean windows - bedroom",
    "completed": true
}, {
    "userId": 3,
    "id": 48,
    "title": "Pack bag for work",
    "description": "pack bag for next week",
    "created_at": "Fridy Nov 05 15:45:09 +0000 2015",
    "description": "pack bag for next week",
    "completed": true
}, {
    "userId": 4,
    "id": 49,
    "title": "Finish this Do list",
    "description": "Finish this Do list for Monday",
    "created_at": "Fridy Nov 05 15:45:09 +0000 2015",
    "description": "Finish this Do list for Monday",
    "completed": true
}, {
    "userId": 4,
    "id": 50,
    "title": "Empty bins",
    "description": "bin collection on weds",
    "created_at": "Fridy Nov 05 15:45:09 +0000 2015",
    "description": "bin collection on weds",
    "completed": false
}]
